2 Alternatively, we might want to estimate treatment effects for combinations of treatments. | 14_workshop.knit
…
A quick strategy for estimating interaction effects in R can be using the lm() function.

2.4.1 Modeling Interactions

While it uses a regression model, rather than the difference of means, to estimate these effects, it tends to be pretty brief and doesn’t require making our groups, dbbar, or error data.frames.

# Using our raw data of observed lattes
m = lattes %>% 
  # Make a linear model, showing interactions with the '*' sign
  lm(formula = y ~ machine * milk * syrup * art)   

# View our model!
m %>% tidy()

## # A tibble: 24 × 5
##    term                 estimate std.error statistic  p.value
##    <chr>                   <dbl>     <dbl>     <dbl>    <dbl>
##  1 (Intercept)            43.3        1.71    25.3   1.64e-66
##  2 machineb              -20.9        2.42    -8.63  1.37e-15
##  3 milkskim                1.67       2.42     0.689 4.92e- 1
##  4 milkwhole              -1.90       2.42    -0.786 4.33e- 1
##  5 syruptorani            22.0        2.42     9.09  6.48e-17
##  6 artheart               14.1        2.42     5.84  1.88e- 8
##  7 machineb:milkskim       0.734      3.42     0.214 8.30e- 1
##  8 machineb:milkwhole      1.82       3.42     0.532 5.95e- 1
##  9 machineb:syruptorani  -12.6        3.42    -3.69  2.80e- 4
## 10 milkskim:syruptorani    1.20       3.42     0.350 7.27e- 1
## # ℹ 14 more rows
…
